Analysis of RNA-seq Data
…
First, lets load the readr, dplyr, and ggplot2 packages. Then lets import our data with readrs read_csv() function (note: not read.csv()). Lets read in the actual count data and the experimental metadata.

library(readr)
library(dplyr)
library(ggplot2)

mycounts <- read_csv("../data/airway_scaledcounts.csv")
metadata <-  read_csv("../data/airway_metadata.csv")

Now, take a look at each.

mycounts

## # A tibble: 38,694 x 9
##    ensgene         SRR1039508 SRR1039509 SRR1039512 SRR1039513 SRR1039516
##    <chr>                <dbl>      <dbl>      <dbl>      <dbl>      <dbl>
##  1 ENSG00000000003      723        486       904         445      1170   
##  2 ENSG00000000005        0          0         0           0         0   
##  3 ENSG00000000419      467        523       616         371       582   
##  4 ENSG00000000457      347        258       364         237       318   
##  5 ENSG00000000460       96.0       81.0      73.0        66.0     118   
##  6 ENSG00000000938        0          0         1.00        0         2.00
##  7 ENSG00000000971     3413       3916      6000        4308      6424   
##  8 ENSG00000001036     2328       1714      2640        1381      2165   
##  9 ENSG00000001084      670        372       692         448       917   
## 10 ENSG00000001167      426        295       531         178       740   
## # ... with 38,684 more rows, and 3 more variables: SRR1039517 <dbl>,
## #   SRR1039520 <dbl>, SRR1039521 <dbl>
…
Lets start with an exercise.

Exercise 1

If we look at our metadata, we see that the control samples are SRR1039508, SRR1039512, SRR1039516, and SRR1039520. This bit of code will take the mycounts data, mutate() it to add a column called controlmean, then select() only the gene name and this newly created column, and assigning the result to a new object called meancounts.

meancounts <- 
    mycounts %>% 
        mutate(controlmean = 
            (SRR1039508 + SRR1039512 + SRR1039516 + SRR1039520)/4) %>% 
        select(ensgene, controlmean)
meancounts

## # A tibble: 38,694 x 2
##    ensgene         controlmean
##    <chr>                 <dbl>
##  1 ENSG00000000003     901    
##  2 ENSG00000000005       0    
##  3 ENSG00000000419     520    
##  4 ENSG00000000457     340    
##  5 ENSG00000000460      97.2  
##  6 ENSG00000000938       0.750
##  7 ENSG00000000971    5219    
##  8 ENSG00000001036    2327    
##  9 ENSG00000001084     756    
## 10 ENSG00000001167     528    
## # ... with 38,684 more rows

Build off of this code, mutate() it once more (prior to the select()) function, to add another column called treatedmean that takes the mean of the expression values of the treated samples. Then select() only the ensgene, controlmean and treatedmean columns, assigning it to a new object called meancounts.

meancounts <- 
    mycounts %>% 
        mutate(controlmean = 
            (SRR1039508 + SRR1039512 + SRR1039516 + SRR1039520)/4) %>% 
        mutate(treatedmean = 
            (SRR1039509 + SRR1039513 + SRR1039517 + SRR1039521)/4) %>% 
        select(ensgene, controlmean, treatedmean)
meancounts

## # A tibble: 38,694 x 3
##    ensgene         controlmean treatedmean
##    <chr>                 <dbl>       <dbl>
##  1 ENSG00000000003     901           658  
##  2 ENSG00000000005       0             0  
##  3 ENSG00000000419     520           546  
##  4 ENSG00000000457     340           316  
##  5 ENSG00000000460      97.2          78.8
##  6 ENSG00000000938       0.750         0  
##  7 ENSG00000000971    5219          6688  
##  8 ENSG00000001036    2327          1786  
##  9 ENSG00000001084     756           578  
## 10 ENSG00000001167     528           348  
## # ... with 38,684 more rows
…
We can find candidate differentially expressed genes by looking for genes with a large change between control and dex-treated samples. We usually look at the \(log2\) of the fold change, because this has better mathematical properties. On the absolute scale, upregulation goes from 1 to infinity, while downregulation is bounded by 0 and 1. On the log scale, upregulation goes from 0 to infinity, and downregulation goes from 0 to negative infinity. So, lets mutate our meancounts object to add a log2foldchange column. Optionally pipe this to View().

meancounts %>% 
    mutate(log2fc = log2(treatedmean/controlmean))

## # A tibble: 38,694 x 4
##    ensgene         controlmean treatedmean    log2fc
##    <chr>                 <dbl>       <dbl>     <dbl>
##  1 ENSG00000000003     901           658   -  0.453 
##  2 ENSG00000000005       0             0    NaN     
##  3 ENSG00000000419     520           546      0.0690
##  4 ENSG00000000457     340           316   -  0.102 
##  5 ENSG00000000460      97.2          78.8 -  0.304 
##  6 ENSG00000000938       0.750         0   -Inf     
##  7 ENSG00000000971    5219          6688      0.358 
##  8 ENSG00000001036    2327          1786   -  0.382 
##  9 ENSG00000001084     756           578   -  0.387 
## 10 ENSG00000001167     528           348   -  0.600 
## # ... with 38,684 more rows

There are a couple of weird results. Namely, the NaN (not a number) and -Inf (negative infinity) results. The NaN is returned when you divide by zero and try to take the log. The -Inf is returned when you try to take the log of zero. It turns out that there are a lot of genes with zero expression. Lets filter our meancounts data, mutate it to add the \(log2(FoldChange)\), and when were happy with what we see, lets reassign the result of that operation back to the meancounts object. (Note: this is destructive. If youre coding interactively like were doing now, before you do this its good practice to see what the result of the operation is prior to making the reassignment.)

# Try running the code first, prior to reassigning.
meancounts <- meancounts %>% 
  filter(controlmean > 0 & treatedmean > 0) %>% 
  mutate(log2fc = log2(treatedmean/controlmean))
meancounts

## # A tibble: 21,817 x 4
##    ensgene         controlmean treatedmean  log2fc
##    <chr>                 <dbl>       <dbl>   <dbl>
##  1 ENSG00000000003       901         658   -0.453 
##  2 ENSG00000000419       520         546    0.0690
##  3 ENSG00000000457       340         316   -0.102 
##  4 ENSG00000000460        97.2        78.8 -0.304 
##  5 ENSG00000000971      5219        6688    0.358 
##  6 ENSG00000001036      2327        1786   -0.382 
##  7 ENSG00000001084       756         578   -0.387 
##  8 ENSG00000001167       528         348   -0.600 
##  9 ENSG00000001460       227         186   -0.290 
## 10 ENSG00000001461      3170        2701   -0.231 
## # ... with 21,807 more rows

A common threshold used for calling something differentially expressed is a \(log2(FoldChange)\) of greater than 2 or less than -2. Lets filter the dataset both ways to see how many genes are up or down-regulated.

meancounts %>% filter(log2fc > 2)

## # A tibble: 250 x 4
##    ensgene         controlmean treatedmean log2fc
##    <chr>                 <dbl>       <dbl>  <dbl>
##  1 ENSG00000004799     270         1429      2.40
##  2 ENSG00000006788       2.75        19.8    2.84
##  3 ENSG00000008438       0.500        2.75   2.46
##  4 ENSG00000011677       0.500        2.25   2.17
##  5 ENSG00000015413       0.500        3.00   2.58
##  6 ENSG00000015592       0.500        2.25   2.17
##  7 ENSG00000046653     323         2126      2.72
##  8 ENSG00000070190       0.500        3.00   2.58
##  9 ENSG00000070388       3.50        17.5    2.32
## 10 ENSG00000074317       0.250        1.75   2.81
## # ... with 240 more rows

meancounts %>% filter(log2fc < (-2))

## # A tibble: 367 x 4
##    ensgene         controlmean treatedmean log2fc
##    <chr>                 <dbl>       <dbl>  <dbl>
##  1 ENSG00000015520       32.0        6.00   -2.42
##  2 ENSG00000019186       26.5        1.75   -3.92
##  3 ENSG00000025423      295         54.2    -2.44
##  4 ENSG00000028277       88.2       22.0    -2.00
##  5 ENSG00000029559        1.25       0.250  -2.32
##  6 ENSG00000049246      405         93.0    -2.12
##  7 ENSG00000049247        1.25       0.250  -2.32
##  8 ENSG00000052344        2.25       0.250  -3.17
##  9 ENSG00000054179        3.00       0.250  -3.58
## 10 ENSG00000064201       30.0        6.50   -2.21
## # ... with 357 more rows
…
anno

## # A tibble: 66,531 x 9
##    ensgene  entrez symbol chr    start    end strand biotype description  
##    <chr>     <int> <chr>  <chr>  <int>  <int>  <int> <chr>   <chr>        
##  1 ENSG000~   7105 TSPAN6 X     1.01e8 1.01e8     -1 protei~ tetraspanin ~
##  2 ENSG000~  64102 TNMD   X     1.01e8 1.01e8      1 protei~ tenomodulin ~
##  3 ENSG000~   8813 DPM1   20    5.09e7 5.10e7     -1 protei~ dolichyl-pho~
##  4 ENSG000~  57147 SCYL3  1     1.70e8 1.70e8     -1 protei~ SCY1-like, k~
##  5 ENSG000~  55732 C1orf~ 1     1.70e8 1.70e8      1 protei~ chromosome 1~
##  6 ENSG000~   2268 FGR    1     2.76e7 2.76e7     -1 protei~ FGR proto-on~
##  7 ENSG000~   3075 CFH    1     1.97e8 1.97e8      1 protei~ complement f~
##  8 ENSG000~   2519 FUCA2  6     1.43e8 1.44e8     -1 protei~ fucosidase, ~
##  9 ENSG000~   2729 GCLC   6     5.35e7 5.36e7     -1 protei~ glutamate-cy~
## 10 ENSG000~   4800 NFYA   6     4.11e7 4.11e7      1 protei~ nuclear tran~
## # ... with 66,521 more rows
…
Continue on that pipeline, and inner_join() it to the anno data by the ensgene column. Either assign it to a temporary object or pipe the whole thing to View to take a look. What do you notice? Would you trust these results? Why or why not?

result <- 
    meancounts %>% 
    arrange(desc(abs(log2fc))) %>% 
    inner_join(anno, by = "ensgene")
result

## # A tibble: 21,995 x 12
##    ensgene   controlmean treatedmean log2fc  entrez symbol chr       start
##    <chr>           <dbl>       <dbl>  <dbl>   <int> <chr>  <chr>     <int>
##  1 ENSG0000~       0.250     130       9.02  2.47e2 ALOX1~ 17       8.04e6
##  2 ENSG0000~       0.500      63.8     6.99  1.03e8 AC007~ KI27073~ 1.38e5
##  3 ENSG0000~      14.8       809       5.78  7.70e3 ZBTB16 11       1.14e8
##  4 ENSG0000~      12.8         0.250  -5.67  2.85e3 MCHR1  22       4.07e7
##  5 ENSG0000~       9.00      427       5.57  1.02e4 ANGPT~ 1        1.12e7
##  6 ENSG0000~       0.250      10.2     5.36  4.32e3 MMP7   11       1.03e8
##  7 ENSG0000~       0.250       7.25    4.86  5.85e4 LY6G5B CHR_HSC~ 3.17e7
##  8 ENSG0000~       0.500      13.2     4.73  4.40e5 GPR179 17       3.83e7
##  9 ENSG0000~      25.5         1.00   -4.67  8.45e2 CASQ2  1        1.16e8
## 10 ENSG0000~      34.2       827       4.59  7.97e4 STEAP4 7        8.83e7
## # ... with 21,985 more rows, and 4 more variables: end <int>,
## #   strand <int>, biotype <chr>, description <chr>
…
Take a second and read through all the stuff that flies by the screen when you load the DESeq2 package. When you first installed DESeq2 it may have taken a while, because DESeq2 depends on a number of other R packages (S4Vectors, BiocGenerics, parallel, IRanges, etc.) Each of these, in turn, may depend on other packages. These are all loaded into your working environment when you load DESeq2. Also notice the lines that start with The following objects are masked from 'package:.... One example of this is the rename() function from the dplyr package. When the S4Vectors package was loaded, it loaded its own function called rename(). Now, if you wanted to use dplyrs rename function, youll have to call it explicitly using this kind of syntax: dplyr::rename(). See this Q&A thread for more.

Importing data

DESeq works on a particular type of object called a DESeqDataSet. The DESeqDataSet is a single object that contains input values, intermediate calculations like how things are normalized, and all results of a differential expression analysis. You can construct a DESeqDataSet from a count matrix, a metadata file, and a formula indicating the design of the experiment. See the help for ?DESeqDataSetFromMatrix. If you read through the DESeq2 vignette youll read about the structure of the data that you need to construct a DESeqDataSet object.

DESeqDataSetFromMatrix requires the count matrix (countData argument) to be a matrix or numeric data frame. either the row names or the first column of the countData must be the identifier youll use for each gene. The column names of countData are the sample IDs, and they must match the row names of colData (or the first column when tidy=TRUE). colData is an additional dataframe describing sample metadata. Both colData and countData must be regular data.frame objects  they cant have the special tbl class wrapper created when importing with readr::read_*.

Lets look at our mycounts and metadata again.

mycounts

## # A tibble: 38,694 x 9
##    ensgene         SRR1039508 SRR1039509 SRR1039512 SRR1039513 SRR1039516
##    <chr>                <dbl>      <dbl>      <dbl>      <dbl>      <dbl>
##  1 ENSG00000000003      723        486       904         445      1170   
##  2 ENSG00000000005        0          0         0           0         0   
##  3 ENSG00000000419      467        523       616         371       582   
##  4 ENSG00000000457      347        258       364         237       318   
##  5 ENSG00000000460       96.0       81.0      73.0        66.0     118   
##  6 ENSG00000000938        0          0         1.00        0         2.00
##  7 ENSG00000000971     3413       3916      6000        4308      6424   
##  8 ENSG00000001036     2328       1714      2640        1381      2165   
##  9 ENSG00000001084      670        372       692         448       917   
## 10 ENSG00000001167      426        295       531         178       740   
## # ... with 38,684 more rows, and 3 more variables: SRR1039517 <dbl>,
## #   SRR1039520 <dbl>, SRR1039521 <dbl>
…
Since weve got a fairly simple design (single factor, two groups, treated versus control), we can get results out of the object simply by calling the results() function on the DESeqDataSet that has been run through the pipeline. The help page for ?results and the vignette both have extensive documentation about how to pull out the results for more complicated models (multi-factor experiments, specific contrasts, interaction terms, time courses, etc.).

Note two things:

Were passing the tidy=TRUE argument, which tells DESeq2 to output the results table with rownames as a first column called row. If we didnt do this, the gene names would be stuck in the row.names, and wed have a hard time filtering or otherwise using that column.

This returns a regular old data frame. Try displaying it to the screen by just typing res. Youll see that it doesnt print as nicly as the data we read in with read_csv. We can add this special attribute to the raw data returned which just tells R to print it nicely.

res <- results(dds, tidy = TRUE)
# res
res <- as_tibble(res)
res

## # A tibble: 38,694 x 7
##    row             baseMean log2FoldChange  lfcSE    stat  pvalue   padj
##    <chr>              <dbl>          <dbl>  <dbl>   <dbl>   <dbl>  <dbl>
##  1 ENSG00000000003  747           - 0.351   0.168 - 2.08   0.0371  0.163
##  2 ENSG00000000005    0            NA      NA      NA     NA      NA    
##  3 ENSG00000000419  520             0.206   0.101   2.04   0.0413  0.176
##  4 ENSG00000000457  323             0.0245  0.145   0.169  0.866   0.962
##  5 ENSG00000000460   87.7         - 0.147   0.257 - 0.573  0.567   0.816
##  6 ENSG00000000938    0.319       - 1.73    3.49  - 0.496  0.620  NA    
##  7 ENSG00000000971 5760             0.459   0.234   1.96   0.0500  0.201
##  8 ENSG00000001036 2025           - 0.228   0.125 - 1.83   0.0678  0.247
##  9 ENSG00000001084  652           - 0.253   0.203 - 1.25   0.212   0.495
## 10 ENSG00000001167  412           - 0.534   0.229 - 2.33   0.0197  0.105
## # ... with 38,684 more rows

Either click on the res object in the environment pane or pass it to View() to bring it up in a data viewer. Why do you think so many of the adjusted p-values are missing (NA)? Try looking at the baseMean column, which tells you the average overall expression of this gene, and how that relates to whether or not the p-value was missing. Go to the DESeq2 vignette and read the section about Independent filtering and multiple testing.

The goal of independent filtering is to filter out those tests from the procedure that have no, or little chance of showing significant evidence, without even looking at the statistical result. Genes with very low counts are not likely to see significant differences typically due to high dispersion. This results in increased detection power at the same experiment-wide type I error [i.e., better FDRs].

Exercise 4

Using a %>%, arrange the results by the adjusted p-value.

res %>% 
    arrange(padj)

## # A tibble: 38,694 x 7
##    row             baseMean log2FoldChange  lfcSE  stat    pvalue     padj
##    <chr>              <dbl>          <dbl>  <dbl> <dbl>     <dbl>    <dbl>
##  1 ENSG00000152583      955           4.37 0.237   18.4  8.87e-76 1.34e-71
##  2 ENSG00000179094      743           2.86 0.176   16.3  7.97e-60 6.04e-56
##  3 ENSG00000116584     2278          -1.03 0.0651 -15.9  5.80e-57 2.93e-53
##  4 ENSG00000189221     2384           3.34 0.212   15.7  9.24e-56 3.50e-52
##  5 ENSG00000120129     3441           2.97 0.204   14.6  5.31e-48 1.61e-44
##  6 ENSG00000148175    13494           1.43 0.100   14.2  6.93e-46 1.75e-42
##  7 ENSG00000178695     2685          -2.49 0.178  -14.0  2.11e-44 4.56e-41
##  8 ENSG00000109906      440           5.93 0.428   13.8  1.40e-43 2.65e-40
##  9 ENSG00000134686     2934           1.44 0.106   13.6  3.88e-42 6.53e-39
## 10 ENSG00000101347    14135           3.85 0.285   13.5  1.28e-41 1.94e-38
## # ... with 38,684 more rows
…
MA & Volcano plots

Lets make some commonly produced visualizations from this data. First, lets mutate our results object to add a column called sig that evaluates to TRUE if padj<0.05, and FALSE if not, and NA if padj is also NA.

# Create the new column
res <- res %>% mutate(sig = padj < 0.05)
res

## # A tibble: 38,957 x 16
##    row    baseMean log2FoldChange  lfcSE  stat     pvalue      padj entrez
##    <chr>     <dbl>          <dbl>  <dbl> <dbl>      <dbl>     <dbl>  <int>
##  1 ENSG0~      955           4.37 0.237   18.4   8.87e-76  1.34e-71   8404
##  2 ENSG0~      743           2.86 0.176   16.3   7.97e-60  6.04e-56   5187
##  3 ENSG0~     2278          -1.03 0.0651 -15.9   5.80e-57  2.93e-53   9181
##  4 ENSG0~     2384           3.34 0.212   15.7   9.24e-56  3.50e-52   4128
##  5 ENSG0~     3441           2.97 0.204   14.6   5.31e-48  1.61e-44   1843
##  6 ENSG0~    13494           1.43 0.100   14.2   6.93e-46  1.75e-42   2040
##  7 ENSG0~     2685          -2.49 0.178  -14.0   2.11e-44  4.56e-41 115207
##  8 ENSG0~      440           5.93 0.428   13.8   1.40e-43  2.65e-40   7704
##  9 ENSG0~     2934           1.44 0.106   13.6   3.88e-42  6.53e-39   1912
## 10 ENSG0~    14135           3.85 0.285   13.5   1.28e-41  1.94e-38  25939
## # ... with 38,947 more rows, and 8 more variables: symbol <chr>,
## #   chr <chr>, start <int>, end <int>, strand <int>, biotype <chr>,
## #   description <chr>, sig <lgl>
…
