Exercise 1
…
2018/3/12

library(dplyr)
library(survival)
library(survminer)

Take a look at the built in colon dataset. If you type ?colon itll ask you if you wanted help on the colon dataset from the survival package, or the colon operator. Click Chemotherapy for Stage B/C colon cancer, or be specific with ?survival::colon. This dataset has survival and recurrence information on 929 people from a clinical trial on colon cancer chemotherapy. There are two rows per person, indicated by the event type (etype) variable  etype == 1 indicates that row corresponds to recurrence; etype == 2 indicates death.

First, lets turn the colon data into a tibble, then filter the data to only include the survival data, not the recurrence data. Lets call this new object colondeath. The filter() function is in the dplyr library, which you can get by running library(dplyr). If you dont have dplyr you can use the base subset() function instead.

colon <- as_tibble(colon)
colon

## # A tibble: 1,858 x 16
##       id study rx        sex   age obstruct perfor adhere nodes status
##  * <dbl> <dbl> <fct>   <dbl> <dbl>    <dbl>  <dbl>  <dbl> <dbl>  <dbl>
##  1  1.00  1.00 Lev+5FU  1.00  43.0     0         0   0     5.00   1.00
##  2  1.00  1.00 Lev+5FU  1.00  43.0     0         0   0     5.00   1.00
##  3  2.00  1.00 Lev+5FU  1.00  63.0     0         0   0     1.00   0   
##  4  2.00  1.00 Lev+5FU  1.00  63.0     0         0   0     1.00   0   
##  5  3.00  1.00 Obs      0     71.0     0         0   1.00  7.00   1.00
##  6  3.00  1.00 Obs      0     71.0     0         0   1.00  7.00   1.00
##  7  4.00  1.00 Lev+5FU  0     66.0     1.00      0   0     6.00   1.00
##  8  4.00  1.00 Lev+5FU  0     66.0     1.00      0   0     6.00   1.00
##  9  5.00  1.00 Obs      1.00  69.0     0         0   0    22.0    1.00
## 10  5.00  1.00 Obs      1.00  69.0     0         0   0    22.0    1.00
## # ... with 1,848 more rows, and 6 more variables: differ <dbl>,
## #   extent <dbl>, surg <dbl>, node4 <dbl>, time <dbl>, etype <dbl>

colondeath <- filter(colon, etype == 2)
colondeath

## # A tibble: 929 x 16
##       id study rx        sex   age obstruct perfor adhere nodes status
##    <dbl> <dbl> <fct>   <dbl> <dbl>    <dbl>  <dbl>  <dbl> <dbl>  <dbl>
##  1  1.00  1.00 Lev+5FU  1.00  43.0     0         0   0     5.00   1.00
##  2  2.00  1.00 Lev+5FU  1.00  63.0     0         0   0     1.00   0   
##  3  3.00  1.00 Obs      0     71.0     0         0   1.00  7.00   1.00
##  4  4.00  1.00 Lev+5FU  0     66.0     1.00      0   0     6.00   1.00
##  5  5.00  1.00 Obs      1.00  69.0     0         0   0    22.0    1.00
##  6  6.00  1.00 Lev+5FU  0     57.0     0         0   0     9.00   1.00
##  7  7.00  1.00 Lev      1.00  77.0     0         0   0     5.00   1.00
##  8  8.00  1.00 Obs      1.00  54.0     0         0   0     1.00   0   
##  9  9.00  1.00 Lev      1.00  46.0     0         0   1.00  2.00   0   
## 10 10.0   1.00 Lev+5FU  0     68.0     0         0   0     1.00   0   
## # ... with 919 more rows, and 6 more variables: differ <dbl>,
## #   extent <dbl>, surg <dbl>, node4 <dbl>, time <dbl>, etype <dbl>
…
